CART Model Diamonds Data
…
Visual Inspection

Preparing Data for ggplot

Since price will be response variable in the model first we need to look at if there were any correlation between numeric variables with price. Getting ready a longer dataframe will be used by ggplot

longer_diamonds <- diamonds %>% select(1, 5,6,7,8,9, 10) %>% pivot_longer(-price, names_to = "names", values_to="values")
longer_diamonds

## # A tibble: 323,640 x 3
##    price names values
##    <int> <chr>  <dbl>
##  1   326 carat   0.23
##  2   326 depth  61.5 
##  3   326 table  55   
##  4   326 x       3.95
##  5   326 y       3.98
##  6   326 z       2.43
##  7   326 carat   0.21
##  8   326 depth  59.8 
##  9   326 table  61   
## 10   326 x       3.89
## # ... with 323,630 more rows
…
